#####--- WWZ->3L ---#####
## sel B
(   trilep_type>0 && (abs(total_charge)==1) && (lep_isTrigMatch_0 || lep_isTrigMatch_1 || lep_isTrigMatch_2 || matchDLTll01 || matchDLTll02 || matchDLTll12) && (lep_ID_0!=-lep_ID_1 || (Mll01>12e3)) && (lep_ID_0!=-lep_ID_2 || (Mll02>12e3)) && (lep_promptLeptonIso_TagWeight_1 < -0.5 && ((abs(lep_ID_1)==13 && lep_isolationLoose_1 ) || (abs(lep_ID_1)==11 && lep_isolationLoose_1 && lep_isTightLH_1))) && (lep_promptLeptonIso_TagWeight_2 < -0.5 && ((abs(lep_ID_2)==13 && lep_isolationLoose_2 ) || (abs(lep_ID_2)==11 && lep_isolationLoose_2 && lep_isTightLH_2))) && ( (lep_ID_0==-lep_ID_1 && (abs(Mll01-91.2e3)<10e3)) || (lep_ID_0==-lep_ID_2 && (abs(Mll02-91.2e3)<10e3)) ) && (nJets_OR_T_MV2c10_70==0)   )
## sel D
#(   trilep_type>0 && (abs(total_charge)==1) && (lep_isTrigMatch_0 || lep_isTrigMatch_1 || lep_isTrigMatch_2 || matchDLTll01 || matchDLTll02 || matchDLTll12) && (lep_ID_0!=-lep_ID_1 || (Mll01>12e3)) && (lep_ID_0!=-lep_ID_2 || (Mll02>12e3)) && (lep_promptLeptonIso_TagWeight_1 < -0.5 && ((abs(lep_ID_1)==13 && lep_isolationLoose_1 ) || (abs(lep_ID_1)==11 && lep_isolationLoose_1 && lep_isTightLH_1))) && (lep_promptLeptonIso_TagWeight_2 < -0.5 && ((abs(lep_ID_2)==13 && lep_isolationLoose_2 ) || (abs(lep_ID_2)==11 && lep_isolationLoose_2 && lep_isTightLH_2))) && ( (lep_ID_0==-lep_ID_1 && (abs(Mll01-91.2e3)<10e3)) || (lep_ID_0==-lep_ID_2 && (abs(Mll02-91.2e3)<10e3)) ) && (nJets_OR_T_MV2c10_70==0) && (HT/1000. > 300.) && (MET_RefFinal_et/1000.>100.)   )
#####--- WWZ->3L ---#####
