/eos/atlas/user/a/asciandr/WWZ/v1.0/MC16c/341270.root
/eos/atlas/user/a/asciandr/WWZ/v1.0/MC16c/341998.root
/eos/atlas/user/a/asciandr/WWZ/v1.0/MC16c/342284.root
/eos/atlas/user/a/asciandr/WWZ/v1.0/MC16c/342285.root
/eos/atlas/user/a/asciandr/WWZ/v1.0/MC16c/364100.root
/eos/atlas/user/a/asciandr/WWZ/v1.0/MC16c/364101.root
/eos/atlas/user/a/asciandr/WWZ/v1.0/MC16c/364102.root
/eos/atlas/user/a/asciandr/WWZ/v1.0/MC16c/364103.root
/eos/atlas/user/a/asciandr/WWZ/v1.0/MC16c/364104.root
/eos/atlas/user/a/asciandr/WWZ/v1.0/MC16c/364105.root
/eos/atlas/user/a/asciandr/WWZ/v1.0/MC16c/364106.root
/eos/atlas/user/a/asciandr/WWZ/v1.0/MC16c/364107.root
/eos/atlas/user/a/asciandr/WWZ/v1.0/MC16c/364108.root
/eos/atlas/user/a/asciandr/WWZ/v1.0/MC16c/364109.root
/eos/atlas/user/a/asciandr/WWZ/v1.0/MC16c/364110.root
/eos/atlas/user/a/asciandr/WWZ/v1.0/MC16c/364111.root
/eos/atlas/user/a/asciandr/WWZ/v1.0/MC16c/364112.root
/eos/atlas/user/a/asciandr/WWZ/v1.0/MC16c/364113.root
/eos/atlas/user/a/asciandr/WWZ/v1.0/MC16c/364114.root
/eos/atlas/user/a/asciandr/WWZ/v1.0/MC16c/364115.root
/eos/atlas/user/a/asciandr/WWZ/v1.0/MC16c/364116.root
/eos/atlas/user/a/asciandr/WWZ/v1.0/MC16c/364117.root
/eos/atlas/user/a/asciandr/WWZ/v1.0/MC16c/364118.root
/eos/atlas/user/a/asciandr/WWZ/v1.0/MC16c/364119.root
/eos/atlas/user/a/asciandr/WWZ/v1.0/MC16c/364120.root
/eos/atlas/user/a/asciandr/WWZ/v1.0/MC16c/364121.root
/eos/atlas/user/a/asciandr/WWZ/v1.0/MC16c/364122.root
/eos/atlas/user/a/asciandr/WWZ/v1.0/MC16c/364123.root
/eos/atlas/user/a/asciandr/WWZ/v1.0/MC16c/364124.root
/eos/atlas/user/a/asciandr/WWZ/v1.0/MC16c/364125.root
/eos/atlas/user/a/asciandr/WWZ/v1.0/MC16c/364126.root
/eos/atlas/user/a/asciandr/WWZ/v1.0/MC16c/364127.root
/eos/atlas/user/a/asciandr/WWZ/v1.0/MC16c/364128.root
/eos/atlas/user/a/asciandr/WWZ/v1.0/MC16c/364129.root
/eos/atlas/user/a/asciandr/WWZ/v1.0/MC16c/364130.root
/eos/atlas/user/a/asciandr/WWZ/v1.0/MC16c/364131.root
/eos/atlas/user/a/asciandr/WWZ/v1.0/MC16c/364132.root
/eos/atlas/user/a/asciandr/WWZ/v1.0/MC16c/364133.root
/eos/atlas/user/a/asciandr/WWZ/v1.0/MC16c/364134.root
/eos/atlas/user/a/asciandr/WWZ/v1.0/MC16c/364135.root
/eos/atlas/user/a/asciandr/WWZ/v1.0/MC16c/364136.root
/eos/atlas/user/a/asciandr/WWZ/v1.0/MC16c/364137.root
/eos/atlas/user/a/asciandr/WWZ/v1.0/MC16c/364138.root
/eos/atlas/user/a/asciandr/WWZ/v1.0/MC16c/364139.root
/eos/atlas/user/a/asciandr/WWZ/v1.0/MC16c/364140.root
/eos/atlas/user/a/asciandr/WWZ/v1.0/MC16c/364141.root
/eos/atlas/user/a/asciandr/WWZ/v1.0/MC16c/364242.root
/eos/atlas/user/a/asciandr/WWZ/v1.0/MC16c/364243.root
/eos/atlas/user/a/asciandr/WWZ/v1.0/MC16c/364244.root
/eos/atlas/user/a/asciandr/WWZ/v1.0/MC16c/364245.root
/eos/atlas/user/a/asciandr/WWZ/v1.0/MC16c/364246.root
/eos/atlas/user/a/asciandr/WWZ/v1.0/MC16c/364247.root
/eos/atlas/user/a/asciandr/WWZ/v1.0/MC16c/364248.root
/eos/atlas/user/a/asciandr/WWZ/v1.0/MC16c/364249.root
/eos/atlas/user/a/asciandr/WWZ/v1.0/MC16c/364250.root
/eos/atlas/user/a/asciandr/WWZ/v1.0/MC16c/364253.root
/eos/atlas/user/a/asciandr/WWZ/v1.0/MC16c/364254.root
/eos/atlas/user/a/asciandr/WWZ/v1.0/MC16c/364255.root
/eos/atlas/user/a/asciandr/WWZ/v1.0/MC16c/364261.root
/eos/atlas/user/a/asciandr/WWZ/v1.0/MC16c/410013.root
/eos/atlas/user/a/asciandr/WWZ/v1.0/MC16c/410014.root
/eos/atlas/user/a/asciandr/WWZ/v1.0/MC16c/410025.root
/eos/atlas/user/a/asciandr/WWZ/v1.0/MC16c/410080.root
/eos/atlas/user/a/asciandr/WWZ/v1.0/MC16c/410081.root
/eos/atlas/user/a/asciandr/WWZ/v1.0/MC16c/410155.root
/eos/atlas/user/a/asciandr/WWZ/v1.0/MC16c/410218.root
/eos/atlas/user/a/asciandr/WWZ/v1.0/MC16c/410219.root
/eos/atlas/user/a/asciandr/WWZ/v1.0/MC16c/410220.root
/eos/atlas/user/a/asciandr/WWZ/v1.0/MC16c/410503.root
/eos/atlas/user/a/asciandr/WWZ/v1.0/MC16c/410560.root
