#--- only adding new branches
(  1.  )
#--- also skimming ntuples 
### (  (@lepton_pt.size()==4) && (total_charge==0)&& (lepton_isTightLH[2] && lepton_ambiguityType[2]==0 && lepton_isolationFixedCutLoose[2] && ((lepton_PromptLeptonVeto[2]<-0.7 && abs(lepton_ID[2])==11) || (lepton_PromptLeptonVeto[2]<-0.5 && abs(lepton_ID[2])==13))) && (lepton_isTightLH[3] && lepton_ambiguityType[3]==0 && lepton_isolationFixedCutLoose[3] && ((lepton_PromptLeptonVeto[3]<-0.7 && abs(lepton_ID[3])==11) || (lepton_PromptLeptonVeto[3]<-0.5 && abs(lepton_ID[3])==13)))  )
### (  (passEventCleaning && passTrigger && isTrigMatched) && (@lepton_pt.size()==3) && (abs(total_charge)==1) && ( (lepton_isTightLH[0] && lepton_ambiguityType[0]==0 && lepton_isolationFixedCutLoose[0] && ((lepton_PromptLeptonVeto[0]<-0.7 && abs(lepton_ID[0])==11) || (lepton_PromptLeptonVeto[0]<-0.5 && abs(lepton_ID[0])==13))) && (lepton_isTightLH[1] && lepton_ambiguityType[1]==0 && lepton_isolationFixedCutLoose[1] && ((lepton_PromptLeptonVeto[1]<-0.7 && abs(lepton_ID[1])==11) || (lepton_PromptLeptonVeto[1]<-0.5 && abs(lepton_ID[1])==13))) && (lepton_isTightLH[2] && lepton_ambiguityType[2]==0 && lepton_isolationFixedCutLoose[2] && ((lepton_PromptLeptonVeto[2]<-0.7 && abs(lepton_ID[2])==11) || (lepton_PromptLeptonVeto[2]<-0.5 && abs(lepton_ID[2])==13))) )  )
#--- OLD STUFF
### (  (@lepton_pt.size()==4)  )
### (  (@lepton_pt.size()==4) && (@jet_pt.size()!=0)  )
#--- event cleaning and trigger-match, exactly 4 leptons, two subleading tight, low-mass resoncances veto and at least 1 Z-cand ---#
### (  (passEventCleaning && passTrigger && isTrigMatched) && (@lepton_pt.size()==4) && (total_charge==0) && (lepton_PromptLeptonVeto[2]<-0.4 && lepton_isTightLH[2]) && (lepton_PromptLeptonVeto[3]<-0.4 && lepton_isTightLH[3]) && ((lepton_ID[0]!=-lepton_ID[1] || Mll01>12e3) && (lepton_ID[0]!=-lepton_ID[2] || Mll02>12e3) && (lepton_ID[0]!=-lepton_ID[3] || Mll03>12e3) && (lepton_ID[1]!=-lepton_ID[2] || Mll12>12e3) && (lepton_ID[1]!=-lepton_ID[3] || Mll13>12e3) && (lepton_ID[2]!=-lepton_ID[3] || Mll23>12e3)) && ((lepton_ID[0]==-lepton_ID[1] && abs(Mll01-91.2e3)<10e3 && (lepton_ID[2]==-lepton_ID[3])) || (lepton_ID[0]==-lepton_ID[2] && abs(Mll02-91.2e3)<10e3 && (lepton_ID[1]==-lepton_ID[3])) || (lepton_ID[0]==-lepton_ID[3] && abs(Mll03-91.2e3)<10e3 && (lepton_ID[1]==-lepton_ID[2])) || (lepton_ID[1]==-lepton_ID[2] && abs(Mll12-91.2e3)<10e3 && (lepton_ID[0]==-lepton_ID[3])) || (lepton_ID[1]==-lepton_ID[3] && abs(Mll13-91.2e3)<10e3 && (lepton_ID[0]==-lepton_ID[2])) || (lepton_ID[2]==-lepton_ID[3] && abs(Mll23-91.2e3)<10e3 && (lepton_ID[0]==-lepton_ID[1])))  )
#--- event cleaning and trigger-match, exactly 3 TIGHT leptons, tot charge=+-1, low-mass resoncances veto and at least 1 Z-cand ---#
### (  (passEventCleaning && passTrigger && isTrigMatched) && (@lepton_pt.size()==3) && (abs(total_charge)==1) && (lepton_PromptLeptonVeto[0]<-0.4 && lepton_isTightLH[0] && lepton_PromptLeptonVeto[1]<-0.4 && lepton_isTightLH[1] && lepton_PromptLeptonVeto[2]<-0.4 && lepton_isTightLH[2]) && ((lepton_ID[0]!=-lepton_ID[1] || Mll01>12e3) && (lepton_ID[0]!=-lepton_ID[2] || Mll02>12e3) && (lepton_ID[1]!=-lepton_ID[2] || Mll12>12e3)) && ((lepton_ID[0]==-lepton_ID[1] && abs(Mll01-91.2e3)<10e3) || (lepton_ID[0]==-lepton_ID[2] && abs(Mll02-91.2e3)<10e3) || (lepton_ID[1]==-lepton_ID[2] && abs(Mll12-91.2e3)<10e3))  )
